^zad4.asm
D:\Projekty\Assemblerowe\ASM-LAB6-ZAD4\ASM-LAB6-ZAD4\Debug\zad4.obj
^zad4.asm
D:\Projekty\Assemblerowe\ASM-LAB6-ZAD4\ASM-LAB6-ZAD4\Debug\zad4.obj
^zad4.asm
D:\Projekty\Assemblerowe\ASM-LAB6-ZAD4\ASM-LAB6-ZAD4\Debug\zad4.obj
^zad4.asm
D:\Projekty\Assemblerowe\ASM-LAB6-ZAD4\ASM-LAB6-ZAD4\Debug\zad4.obj
^zad4.asm
D:\Projekty\Assemblerowe\ASM-LAB6-ZAD4\ASM-LAB6-ZAD4\Debug\zad4.obj
^zad4.asm
D:\Projekty\Assemblerowe\ASM-LAB6-ZAD4\ASM-LAB6-ZAD4\Debug\zad4.obj
^zad4.asm
D:\Projekty\Assemblerowe\ASM-LAB6-ZAD4\ASM-LAB6-ZAD4\Debug\zad4.obj
^zad4.asm
D:\Projekty\Assemblerowe\ASM-LAB6-ZAD4\ASM-LAB6-ZAD4\Debug\zad4.obj
^zad4.asm
D:\Projekty\Assemblerowe\ASM-LAB6-ZAD4\ASM-LAB6-ZAD4\Debug\zad4.obj
^zad4.asm
D:\Projekty\Assemblerowe\ASM-LAB6-ZAD4\ASM-LAB6-ZAD4\Debug\zad4.obj
^zad4.asm
D:\Projekty\Assemblerowe\ASM-LAB6-ZAD4\ASM-LAB6-ZAD4\Debug\zad4.obj
^zad4.asm
D:\Projekty\Assemblerowe\ASM-LAB6-ZAD4\ASM-LAB6-ZAD4\Debug\zad4.obj
^zad4.asm
D:\Projekty\Assemblerowe\ASM-LAB6-ZAD4\ASM-LAB6-ZAD4\Debug\zad4.obj
^zad4.asm
D:\Projekty\Assemblerowe\ASM-LAB6-ZAD4\ASM-LAB6-ZAD4\Debug\zad4.obj
^zad4.asm
D:\Projekty\Assemblerowe\ASM-LAB6-ZAD4\ASM-LAB6-ZAD4\Debug\zad4.obj
^zad4.asm
D:\Projekty\Assemblerowe\ASM-LAB6-ZAD4\ASM-LAB6-ZAD4\Debug\zad4.obj
^zad4.asm
D:\Projekty\Assemblerowe\ASM-LAB6-ZAD4\ASM-LAB6-ZAD4\Debug\zad4.obj
^zad4.asm
D:\Projekty\Assemblerowe\ASM-LAB6-ZAD4\ASM-LAB6-ZAD4\Debug\zad4.obj
^zad4.asm
D:\Projekty\Assemblerowe\ASM-LAB6-ZAD4\ASM-LAB6-ZAD4\Debug\zad4.obj
^zad4.asm
D:\Projekty\Assemblerowe\ASM-LAB6-ZAD4\ASM-LAB6-ZAD4\Debug\zad4.obj
^zad4.asm
D:\Projekty\Assemblerowe\ASM-LAB6-ZAD4\ASM-LAB6-ZAD4\Debug\zad4.obj
^zad4.asm
D:\Projekty\Assemblerowe\ASM-LAB6-ZAD4\ASM-LAB6-ZAD4\Debug\zad4.obj
^zad4.asm
D:\Projekty\Assemblerowe\ASM-LAB6-ZAD4\ASM-LAB6-ZAD4\Debug\zad4.obj
^zad4.asm
D:\Projekty\Assemblerowe\ASM-LAB6-ZAD4\ASM-LAB6-ZAD4\Debug\zad4.obj
^zad4.asm
D:\Projekty\Assemblerowe\ASM-LAB6-ZAD4\ASM-LAB6-ZAD4\Debug\zad4.obj
^zad4.asm
D:\Projekty\Assemblerowe\ASM-LAB6-ZAD4\ASM-LAB6-ZAD4\Debug\zad4.obj
^zad4.asm
D:\Projekty\Assemblerowe\ASM-LAB6-ZAD4\ASM-LAB6-ZAD4\Debug\zad4.obj
^zad4.asm
D:\Projekty\Assemblerowe\ASM-LAB6-ZAD4\ASM-LAB6-ZAD4\Debug\zad4.obj
^zad4.asm
D:\Projekty\Assemblerowe\ASM-LAB6-ZAD4\ASM-LAB6-ZAD4\Debug\zad4.obj
^zad4.asm
D:\Projekty\Assemblerowe\ASM-LAB6-ZAD4\ASM-LAB6-ZAD4\Debug\zad4.obj
^zad4.asm
D:\Projekty\Assemblerowe\ASM-LAB6-ZAD4\ASM-LAB6-ZAD4\Debug\zad4.obj
^zad4.asm
D:\Projekty\Assemblerowe\ASM-LAB6-ZAD4\ASM-LAB6-ZAD4\Debug\zad4.obj
^zad4.asm
D:\Projekty\Assemblerowe\ASM-LAB6-ZAD4\ASM-LAB6-ZAD4\Debug\zad4.obj
^zad4.asm
D:\Projekty\Assemblerowe\ASM-LAB6-ZAD4\ASM-LAB6-ZAD4\Debug\zad4.obj
^zad4.asm
D:\Projekty\Assemblerowe\ASM-LAB6-ZAD4\ASM-LAB6-ZAD4\Debug\zad4.obj
^zad4.asm
D:\Projekty\Assemblerowe\ASM-LAB6-ZAD4\ASM-LAB6-ZAD4\Debug\zad4.obj
^zad4.asm
D:\Projekty\Assemblerowe\ASM-LAB6-ZAD4\ASM-LAB6-ZAD4\Debug\zad4.obj
^zad4.asm
D:\Projekty\Assemblerowe\ASM-LAB6-ZAD4\ASM-LAB6-ZAD4\Debug\zad4.obj
^zad4.asm
D:\Projekty\Assemblerowe\ASM-LAB6-ZAD4\ASM-LAB6-ZAD4\Debug\zad4.obj
^zad4.asm
D:\Projekty\Assemblerowe\ASM-LAB6-ZAD4\ASM-LAB6-ZAD4\Debug\zad4.obj
^zad4.asm
D:\Projekty\Assemblerowe\ASM-LAB6-ZAD4\ASM-LAB6-ZAD4\Debug\zad4.obj
^zad4.asm
D:\Projekty\Assemblerowe\ASM-LAB6-ZAD4\ASM-LAB6-ZAD4\Debug\zad4.obj
^zad4.asm
D:\Projekty\Assemblerowe\ASM-LAB6-ZAD4\ASM-LAB6-ZAD4\Debug\zad4.obj
^zad4.asm
D:\Projekty\Assemblerowe\ASM-LAB6-ZAD4\ASM-LAB6-ZAD4\Debug\zad4.obj
^zad4.asm
D:\Projekty\Assemblerowe\ASM-LAB6-ZAD4\ASM-LAB6-ZAD4\Debug\zad4.obj
^zad4.asm
D:\Projekty\Assemblerowe\ASM-LAB6-ZAD4\ASM-LAB6-ZAD4\Debug\zad4.obj
^zad4.asm
D:\Projekty\Assemblerowe\ASM-LAB6-ZAD4\ASM-LAB6-ZAD4\Debug\zad4.obj
^zad4.asm
D:\Projekty\Assemblerowe\ASM-LAB6-ZAD4\ASM-LAB6-ZAD4\Debug\zad4.obj
^zad4.asm
D:\Projekty\Assemblerowe\ASM-LAB6-ZAD4\ASM-LAB6-ZAD4\Debug\zad4.obj
^zad4.asm
D:\Projekty\Assemblerowe\ASM-LAB6-ZAD4\ASM-LAB6-ZAD4\Debug\zad4.obj
^zad4.asm
D:\Projekty\Assemblerowe\ASM-LAB6-ZAD4\ASM-LAB6-ZAD4\Debug\zad4.obj
^zad4.asm
D:\Projekty\Assemblerowe\ASM-LAB6-ZAD4\ASM-LAB6-ZAD4\Debug\zad4.obj
^zad4.asm
D:\Projekty\Assemblerowe\ASM-LAB6-ZAD4\ASM-LAB6-ZAD4\Debug\zad4.obj
^zad4.asm
D:\Projekty\Assemblerowe\ASM-LAB6-ZAD4\ASM-LAB6-ZAD4\Debug\zad4.obj
^zad4.asm
D:\Projekty\Assemblerowe\ASM-LAB6-ZAD4\ASM-LAB6-ZAD4\Debug\zad4.obj
^zad4.asm
D:\Projekty\Assemblerowe\ASM-LAB6-ZAD4\ASM-LAB6-ZAD4\Debug\zad4.obj
^zad4.asm
D:\Projekty\Assemblerowe\ASM-LAB6-ZAD4\ASM-LAB6-ZAD4\Debug\zad4.obj
^zad4.asm
D:\Projekty\Assemblerowe\ASM-LAB6-ZAD4\ASM-LAB6-ZAD4\Debug\zad4.obj
^zad4.asm
D:\Projekty\Assemblerowe\ASM-LAB6-ZAD4\ASM-LAB6-ZAD4\Debug\zad4.obj
^zad4.asm
D:\Projekty\Assemblerowe\ASM-LAB6-ZAD4\ASM-LAB6-ZAD4\Debug\zad4.obj
^zad4.asm
D:\Projekty\Assemblerowe\ASM-LAB6-ZAD4\ASM-LAB6-ZAD4\Debug\zad4.obj
^zad4.asm
D:\Projekty\Assemblerowe\ASM-LAB6-ZAD4\ASM-LAB6-ZAD4\Debug\zad4.obj
^zad4.asm
D:\Projekty\Assemblerowe\ASM-LAB6-ZAD4\ASM-LAB6-ZAD4\Debug\zad4.obj
^zad4.asm
D:\Projekty\Assemblerowe\ASM-LAB6-ZAD4\ASM-LAB6-ZAD4\Debug\zad4.obj
^zad4.asm
D:\Projekty\Assemblerowe\ASM-LAB6-ZAD4\ASM-LAB6-ZAD4\Debug\zad4.obj
^zad4.asm
D:\Projekty\Assemblerowe\ASM-LAB6-ZAD4\ASM-LAB6-ZAD4\Debug\zad4.obj
^zad4.asm
D:\Projekty\Assemblerowe\ASM-LAB6-ZAD4\ASM-LAB6-ZAD4\Debug\zad4.obj
^zad4.asm
D:\Projekty\Assemblerowe\ASM-LAB6-ZAD4\ASM-LAB6-ZAD4\Debug\zad4.obj
^zad4.asm
D:\Projekty\Assemblerowe\ASM-LAB6-ZAD4\ASM-LAB6-ZAD4\Debug\zad4.obj
^zad4.asm
D:\Projekty\Assemblerowe\ASM-LAB6-ZAD4\ASM-LAB6-ZAD4\Debug\zad4.obj
^zad4.asm
D:\Projekty\Assemblerowe\ASM-LAB6-ZAD4\ASM-LAB6-ZAD4\Debug\zad4.obj
^zad4.asm
D:\Projekty\Assemblerowe\ASM-LAB6-ZAD4\ASM-LAB6-ZAD4\Debug\zad4.obj
^zad4.asm
D:\Projekty\Assemblerowe\ASM-LAB6-ZAD4\ASM-LAB6-ZAD4\Debug\zad4.obj
^zad4.asm
D:\Projekty\Assemblerowe\ASM-LAB6-ZAD4\ASM-LAB6-ZAD4\Debug\zad4.obj
^zad4.asm
D:\Projekty\Assemblerowe\ASM-LAB6-ZAD4\ASM-LAB6-ZAD4\Debug\zad4.obj
^zad4.asm
D:\Projekty\Assemblerowe\ASM-LAB6-ZAD4\ASM-LAB6-ZAD4\Debug\zad4.obj
^zad4.asm
D:\Projekty\Assemblerowe\ASM-LAB6-ZAD4\ASM-LAB6-ZAD4\Debug\zad4.obj
^zad4.asm
D:\Projekty\Assemblerowe\ASM-LAB6-ZAD4\ASM-LAB6-ZAD4\Debug\zad4.obj
^zad4.asm
D:\Projekty\Assemblerowe\ASM-LAB6-ZAD4\ASM-LAB6-ZAD4\Debug\zad4.obj
^zad4.asm
D:\Projekty\Assemblerowe\ASM-LAB6-ZAD4\ASM-LAB6-ZAD4\Debug\zad4.obj
^zad4.asm
D:\Projekty\Assemblerowe\ASM-LAB6-ZAD4\ASM-LAB6-ZAD4\Debug\zad4.obj
^zad4.asm
D:\Projekty\Assemblerowe\ASM-LAB6-ZAD4\ASM-LAB6-ZAD4\Debug\zad4.obj
^zad4.asm
D:\Projekty\Assemblerowe\ASM-LAB6-ZAD4\ASM-LAB6-ZAD4\Debug\zad4.obj
^zad4.asm
D:\Projekty\Assemblerowe\ASM-LAB6-ZAD4\ASM-LAB6-ZAD4\Debug\zad4.obj
^zad4.asm
D:\Projekty\Assemblerowe\ASM-LAB6-ZAD4\ASM-LAB6-ZAD4\Debug\zad4.obj
^zad4.asm
D:\Projekty\Assemblerowe\ASM-LAB6-ZAD4\ASM-LAB6-ZAD4\Debug\zad4.obj
^zad4.asm
D:\Projekty\Assemblerowe\ASM-LAB6-ZAD4\ASM-LAB6-ZAD4\Debug\zad4.obj
^zad4.asm
D:\Projekty\Assemblerowe\ASM-LAB6-ZAD4\ASM-LAB6-ZAD4\Debug\zad4.obj
^zad4.asm
D:\Projekty\Assemblerowe\ASM-LAB6-ZAD4\ASM-LAB6-ZAD4\Debug\zad4.obj
^zad4.asm
D:\Projekty\Assemblerowe\ASM-LAB6-ZAD4\ASM-LAB6-ZAD4\Debug\zad4.obj
^zad4.asm
D:\Projekty\Assemblerowe\ASM-LAB6-ZAD4\ASM-LAB6-ZAD4\Debug\zad4.obj
^zad4.asm
D:\Projekty\Assemblerowe\ASM-LAB6-ZAD4\ASM-LAB6-ZAD4\Debug\zad4.obj
^zad4.asm
D:\Projekty\Assemblerowe\ASM-LAB6-ZAD4\ASM-LAB6-ZAD4\Debug\zad4.obj
^zad4.asm
D:\Projekty\Assemblerowe\ASM-LAB6-ZAD4\ASM-LAB6-ZAD4\Debug\zad4.obj
^zad4.asm
D:\Projekty\Assemblerowe\ASM-LAB6-ZAD4\ASM-LAB6-ZAD4\Debug\zad4.obj
^zad4.asm
D:\Projekty\Assemblerowe\ASM-LAB6-ZAD4\ASM-LAB6-ZAD4\Debug\zad4.obj
^zad4.asm
D:\Projekty\Assemblerowe\ASM-LAB6-ZAD4\ASM-LAB6-ZAD4\Debug\zad4.obj
^zad4.asm
D:\Projekty\Assemblerowe\ASM-LAB6-ZAD4\ASM-LAB6-ZAD4\Debug\zad4.obj
^zad4.asm
D:\Projekty\Assemblerowe\ASM-LAB6-ZAD4\ASM-LAB6-ZAD4\Debug\zad4.obj
^zad4.asm
D:\Projekty\Assemblerowe\ASM-LAB6-ZAD4\ASM-LAB6-ZAD4\Debug\zad4.obj
^zad4.asm
D:\Projekty\Assemblerowe\ASM-LAB6-ZAD4\ASM-LAB6-ZAD4\Debug\zad4.obj
^zad4.asm
D:\Projekty\Assemblerowe\ASM-LAB6-ZAD4\ASM-LAB6-ZAD4\Debug\zad4.obj
^zad4.asm
D:\Projekty\Assemblerowe\ASM-LAB6-ZAD4\ASM-LAB6-ZAD4\Debug\zad4.obj
^zad4.asm
D:\Projekty\Assemblerowe\ASM-LAB6-ZAD4\ASM-LAB6-ZAD4\Debug\zad4.obj
^zad4.asm
D:\Projekty\Assemblerowe\ASM-LAB6-ZAD4\ASM-LAB6-ZAD4\Debug\zad4.obj
^zad4.asm
D:\Projekty\Assemblerowe\ASM-LAB6-ZAD4\ASM-LAB6-ZAD4\Debug\zad4.obj
